Gráficos em camadas – Modelagem Estatística e Análise de Dados
…
library(ggplot2)
library(patchwork)
library(readr)
library(dplyr)
library(tidyr)

1 Histogramas

Faça um histograma dos dados de vazão da tabela HubbardBrook.csv (datasets).

hbrook <- read_csv("https://raw.githubusercontent.com/FCopf/datasets/refs/heads/main/HubbardBrook.csv")
hbrook

# A tibble: 62 × 4
    Year Treatment   Flow Precipitation
   <dbl> <chr>      <dbl>         <dbl>
 1  1958 Deforested  645.         1168.
 2  1959 Deforested 1012.         1483.
 3  1960 Deforested  825.         1321.
 4  1961 Deforested  470.          980.
 5  1962 Deforested  777.         1232.
 6  1963 Deforested  774.         1139.
 7  1964 Deforested  712.         1175.
 8  1965 Deforested  599.         1115.
 9  1966 Deforested 1189.         1222.
10  1967 Deforested 1132.         1315.
# ℹ 52 more rows
…
Como as vazões foram mensuradas nos mesmos anos, é possível calcular a diferença de vazão entre os tratamentos e representar essas diferenças graficamente.

hbrook_largo <- hbrook |>
  select(-Precipitation) |>
  pivot_wider(names_from = Treatment, values_from = Flow) |> 
  mutate(diffDR = Deforested - Reference)
hbrook_largo

# A tibble: 31 × 4
    Year Deforested Reference diffDR
   <dbl>      <dbl>     <dbl>  <dbl>
 1  1958       645.      567.   77.8
 2  1959      1012.      918.   93.8
 3  1960       825.      752.   73.2
 4  1961       470.      436.   33.8
 5  1962       777.      699.   78.0
 6  1963       774.      663.  111. 
 7  1964       712.      630.   81.7
 8  1965       599.      547.   52.2
 9  1966      1189.      727.  463. 
10  1967      1132.      781.  351. 
# ℹ 21 more rows
…
