Transformação de Dados – Métodos em Estatística e Análise de Dados
…
Observação

A função unite() excluiu as colunas que foram unificadas da tabela. Mara mantê-las na tabela utilize o argumento remove = FALSE.

6 Reformatando data frames: funções pivot_wider() e pivot_longer()

A tabela HubbardBrook.csv (datasets) contém dados anuais de vazão e precipitação em dois bacias hidrográficas (Hornbeck et al. 1993). A primeira (Deforested) teve toda a vegetação removida como parte de um experimento de longa duração enquanto a outra se manteve intacta (Referenca). Os daods de origem e o experimento detalhado são apresentados am Os dados foram retirados de tiee.esa.org

hbrook <- read_csv("https://raw.githubusercontent.com/FCopf/datasets/master/HubbardBrook.csv")
hbrook

# A tibble: 62 × 4
    Year Treatment   Flow Precipitation
   <dbl> <chr>      <dbl>         <dbl>
 1  1958 Deforested  645.         1168.
 2  1959 Deforested 1012.         1483.
 3  1960 Deforested  825.         1321.
 4  1961 Deforested  470.          980.
 5  1962 Deforested  777.         1232.
 6  1963 Deforested  774.         1139.
 7  1964 Deforested  712.         1175.
 8  1965 Deforested  599.         1115.
 9  1966 Deforested 1189.         1222.
10  1967 Deforested 1132.         1315.
# … with 52 more rows

Reorganizando data frames de formato longo para formato largo

A função pivot_wider() é utilizada para transformar dados do formato longo para o formato largo. A seguir, será feito isso apenas para a variável Flow, excluindo Precipitation, separando os dados nas colunas Deforested e Reference.

hbrook_largo <- hbrook |>
  select(-Precipitation) |>
  pivot_wider(names_from = Treatment, values_from = Flow)
hbrook_largo

# A tibble: 31 × 3
    Year Deforested Reference
   <dbl>      <dbl>     <dbl>
 1  1958       645.      567.
 2  1959      1012.      918.
 3  1960       825.      752.
 4  1961       470.      436.
 5  1962       777.      699.
 6  1963       774.      663.
 7  1964       712.      630.
 8  1965       599.      547.
 9  1966      1189.      727.
10  1967      1132.      781.
# … with 21 more rows

Reorganizando data frames de formato largo para formato longo

A função pivot_longer() é utilizada para transformar dados do formato largo para o formato longo, fazendo o caminho inverso de pivot_wider().

hbrook_longo <- hbrook_largo |>
  pivot_longer(!Year, names_to = "Desmatamento", values_to = "Flow")
hbrook_longo

# A tibble: 62 × 3
    Year Desmatamento  Flow
   <dbl> <chr>        <dbl>
 1  1958 Deforested    645.
 2  1958 Reference     567.
 3  1959 Deforested   1012.
 4  1959 Reference     918.
 5  1960 Deforested    825.
 6  1960 Reference     752.
 7  1961 Deforested    470.
 8  1961 Reference     436.
 9  1962 Deforested    777.
10  1962 Reference     699.
# … with 52 more rows
…
